<story path="stories/userSettingsStories/Userinfo_Update.story" title="">
<meta>
<property keyword="@" name="smoke" value=""/>
</meta>
<scenario keyword="Scenario:" title="User updates personal information">
<step outcome="successful">Given I am on a home page</step>
<step outcome="successful">When I log in <parameter>UserUI_A</parameter> and <parameter>A123456</parameter></step>
<step outcome="successful">Then I assert presence on user&apos;s page</step>
<step outcome="successful">When I update my personal Information</step>
<step outcome="successful">Then I assert existence of <parameter>First_Name_Update</parameter> in <parameter>updatedUser.firstName</parameter></step>
<step outcome="successful">Then I assert existence of <parameter>Last_Name_Updated</parameter> in <parameter>updatedUser.lastName</parameter></step>
<step outcome="successful">Then I assert existence of <parameter>OTHER</parameter> in <parameter>updatedUser.gender</parameter></step>
<step outcome="successful">Then I assert existence of <parameter>Town_Of_Birth_Updated</parameter> in <parameter>updatedUser.bornIn</parameter></step>
<step outcome="successful">Then I assert existence of <parameter>Country_Of_Residence_Updated</parameter> in <parameter>updatedUser.livesIn</parameter></step>
<step outcome="successful">Then I assert existence of <parameter>Update_UI_A@abv.bg</parameter> in <parameter>updateUser.email</parameter></step>
<step outcome="successful">Then I assert existence of <parameter>PRIVATE</parameter> in <parameter>updateUser.picturePrivacy</parameter></step>
<step outcome="successful">When I log out</step>
<step outcome="successful">Then I assert presence on login page</step>
</scenario>
</story>
